{
    "Author": "Zuki",
    "Name": "UptimeHelper",
    "Description": "Notifies you when your uptimes aren't up",
    "Punchline": "Helps uptime",
    "InternalName": "UptimeHelper",
    "AssemblyVersion": "1.1.1",
    "RepoUrl": "https://gitlab.com/cnerdbane/uptimehelper",
    "ApplicableVersion": "any",
    "IconUrl": "https://gitlab.com/cnerdbane/uptimehelper/-/raw/main/images/icon.png",
    "Changelog": ""
}